<?xml version="1.0" encoding="utf-8"?>
<!-- Generator: Adobe Illustrator 16.0.4, SVG Export Plug-In . SVG Version: 6.00 Build 0)  -->
<!DOCTYPE svg PUBLIC "-//W3C//DTD SVG 1.1//EN" "http://www.w3.org/Graphics/SVG/1.1/DTD/svg11.dtd">
<svg version="1.1" id="Layer_1" xmlns="http://www.w3.org/2000/svg" xmlns:xlink="http://www.w3.org/1999/xlink" x="0px" y="0px"
	 width="1067.091px" height="461.738px" viewBox="0 0 1067.091 461.738" enable-background="new 0 0 1067.091 461.738"
	 xml:space="preserve">
<path display="none" opacity="0.75" fill="#FFFFFF" d="M566.721,55.186l-27-47.25c-6.125-10.75-11.499,0-11.499,0l-27.75,47.25
	H471.84H12.598c-6.653,0-12.046,5.373-12.046,12v382c0,6.627,5.393,12,12.046,12h1041.998c6.652,0,12.047-5.373,12.047-12v-382
	c0-6.627-5.395-12-12.047-12H587.84H566.721z"/>
<path opacity="0.78" fill="#FEFFFE" d="M695.139,55.186l27-47.25c6.125-10.75,11.498,0,11.498,0l27.75,47.25h28.633h264.576
	c6.653,0,12.047,5.373,12.047,12v382c0,6.627-5.394,12-12.047,12H12.598c-6.652,0-12.047-5.373-12.047-12v-382
	c0-6.627,5.395-12,12.047-12H674.02H695.139z"/>
<path display="none" opacity="0.75" fill="#FEFFFF" d="M372.056,55.186l-27-47.25c-6.125-10.75-11.498,0-11.498,0l-27.75,47.25
	h-28.633H12.599c-6.653,0-12.047,5.373-12.047,12v382c0,6.627,5.394,12,12.047,12h1041.998c6.652,0,12.047-5.373,12.047-12v-382
	c0-6.627-5.395-12-12.047-12H393.175H372.056z"/>
</svg>
