Name,"Team ID",Email,Phone,School,Permissions,State
"Emily Wade",#SJFC2015,emw02669@sjfc.edu,"(585) 519-3200","St John Fisher College",Volunteer,"New York"
"Kinsey Schmitt","#SJFCnursing ",kms03317@sjfc.edu,"(508) 641-5262","St John Fisher College",Volunteer,"New York"
"Ashley Molina",#SJFC2016,alm00683@sjfc.edu,"(585) 402-0437","St John Fisher College",Volunteer,"New York"
"Alyse Anderson",#SJFC2016,aka06740@sjfc.edu,"(518) 603-6448","St John Fisher College",Volunteer,"New York"
